…
```r
lm(perChangeMay ~ as.numeric(`2020-06-30`) + as.numeric(MedianAge) + as.numeric(PercentPoverty) + as.numeric(NumericalRestriction) + party + (State == "IL") + (rurality == "Urban"), data = thatRaiseData2) %>% 
  augment() #%>% 
```

```
## # A tibble: 190 x 16
##    .rownames perChangeMay
##    <chr>            <dbl>
##  1 1             0.0112  
##  2 2             0.00608 
##  3 3            -0.000605
##  4 4             0.00928 
##  5 5             0.0149  
##  6 6             0.00674 
##  7 7             0.0112  
##  8 8             0.0140  
##  9 9             0.0210  
## 10 10            0.00220 
## # … with 180 more rows, and 14
## #   more variables:
## #   as.numeric..2020.06.30.. <dbl>,
## #   as.numeric.MedianAge. <dbl>,
## #   as.numeric.PercentPoverty. <dbl>,
## #   as.numeric.NumericalRestriction. <dbl>,
## #   party <chr>,
## #   State.....IL. <lgl>,
## #   rurality.....Urban. <lgl>,
…
