statisticalFindingsRaise.html
…
lm(perChangeMay ~ as.numeric(`2020-06-30`) + as.numeric(MedianAge) + as.numeric(PercentPoverty) + as.numeric(NumericalRestriction) + party + (State == "IL") + (rurality == "Urban"), data = thatRaiseData2) %>% 
  augment() #%>% 

## # A tibble: 190 x 16
##    .rownames perChangeMay as.numeric..202 as.numeric.Medi as.numeric.Perc
##    <chr>            <dbl>            <dbl>            <dbl>            <dbl>
##  1 1             0.0112             143254             46.3             16.1
##  2 2             0.00608            226221             45.7              5.5
##  3 3            -0.000605           279289             43.7              4.4
##  4 4             0.00928            223385             45.7              4.9
##  5 5             0.0149             153635             44.6              8.5
##  6 6             0.00674            160733             31.4             20.6
##  7 7             0.0112             114489             47.1             12.4
##  8 8             0.0140             113455             35.2             13.5
##  9 9             0.0210             293991             42.6              4  
## 10 10            0.00220            226175             45.1              8.5
## #  with 180 more rows, and 11 more variables:
## #   as.numeric.NumericalRestriction. <dbl>, party <chr>, State.....IL. <lgl>,
## #   rurality.....Urban. <lgl>, .fitted <dbl>, .se.fit <dbl>, .resid <dbl>,
## #   .hat <dbl>, .sigma <dbl>, .cooksd <dbl>, .std.resid <dbl>
…
